{"failedCount":0,"prefixedPath":"classpath:examples\/users\/users.feature","packageQualifiedName":"examples.users.users","loopIndex":-1,"relativePath":"examples\/users\/users.feature","scenarioResults":[{"sectionIndex":0,"stepResults":[{"result":{"nanos":2703100,"startTime":1733775972625,"endTime":1733775972628,"millis":2.7031,"status":"passed"},"step":{"background":true,"line":4,"prefix":"*","index":0,"text":"url 'https:\/\/reqres.in'"},"stepLog":"15:26:12.471 karate.env system property was: null \n"},{"result":{"nanos":1667300,"startTime":1733775972640,"endTime":1733775972642,"millis":1.6673,"status":"passed"},"step":{"line":7,"prefix":"Given","index":0,"text":"path '\/api\/users?page=2'"}},{"result":{"nanos":1921845400,"startTime":1733775972643,"endTime":1733775974565,"millis":1921.8454,"status":"passed"},"step":{"line":8,"prefix":"When","index":1,"text":"method get"},"stepLog":"15:26:13.739 request:\n1 > GET https:\/\/reqres.in\/api\/users%3Fpage=2\n1 > Host: reqres.in\n1 > Connection: Keep-Alive\n1 > User-Agent: Apache-HttpClient\/4.5.14 (Java\/17.0.2)\n1 > Accept-Encoding: gzip,deflate\n\n\n15:26:14.557 response time in milliseconds: 811\n1 < 200\n1 < Date: Mon, 09 Dec 2024 20:26:14 GMT\n1 < Content-Type: application\/json; charset=utf-8\n1 < Transfer-Encoding: chunked\n1 < Connection: keep-alive\n1 < Report-To: {\"group\":\"heroku-nel\",\"max_age\":3600,\"endpoints\":[{\"url\":\"https:\/\/nel.heroku.com\/reports?ts=1733773070&sid=c4c9725f-1ab0-44d8-820f-430df2718e11&s=tTYnXfaW4WjTXOUdIqQ4hyjIiGORpvrDmOEdcvjZBgs%3D\"}]}\n1 < Reporting-Endpoints: heroku-nel=https:\/\/nel.heroku.com\/reports?ts=1733773070&sid=c4c9725f-1ab0-44d8-820f-430df2718e11&s=tTYnXfaW4WjTXOUdIqQ4hyjIiGORpvrDmOEdcvjZBgs%3D\n1 < Nel: {\"report_to\":\"heroku-nel\",\"max_age\":3600,\"success_fraction\":0.005,\"failure_fraction\":0.05,\"response_headers\":[\"Via\"]}\n1 < X-Powered-By: Express\n1 < Access-Control-Allow-Origin: *\n1 < Etag: W\/\"2fb-zJ\/iiAzm4zf7SruyfEtNo0xEDoY\"\n1 < Via: 1.1 vegur\n1 < Cache-Control: max-age=14400\n1 < CF-Cache-Status: HIT\n1 < Age: 2904\n1 < Vary: Accept-Encoding\n1 < Server: cloudflare\n1 < CF-RAY: 8ef7ba9e6d4a4c09-MIA\n1 < server-timing: cfL4;desc=\"?proto=TCP&rtt=67210&min_rtt=64061&rtt_var=24276&sent=7&recv=7&lost=0&retrans=0&sent_bytes=3105&recv_bytes=764&delivery_rate=48702&cwnd=241&unsent_bytes=0&cid=771d81f03d6df274&ts=333&x=0\"\n{\"page\":1,\"per_page\":6,\"total\":12,\"total_pages\":2,\"data\":[{\"id\":1,\"name\":\"cerulean\",\"year\":2000,\"color\":\"#98B2D1\",\"pantone_value\":\"15-4020\"},{\"id\":2,\"name\":\"fuchsia rose\",\"year\":2001,\"color\":\"#C74375\",\"pantone_value\":\"17-2031\"},{\"id\":3,\"name\":\"true red\",\"year\":2002,\"color\":\"#BF1932\",\"pantone_value\":\"19-1664\"},{\"id\":4,\"name\":\"aqua sky\",\"year\":2003,\"color\":\"#7BC4C4\",\"pantone_value\":\"14-4811\"},{\"id\":5,\"name\":\"tigerlily\",\"year\":2004,\"color\":\"#E2583E\",\"pantone_value\":\"17-1456\"},{\"id\":6,\"name\":\"blue turquoise\",\"year\":2005,\"color\":\"#53B0AE\",\"pantone_value\":\"15-5217\"}],\"support\":{\"url\":\"https:\/\/contentcaddy.io?utm_source=reqres&utm_medium=json&utm_campaign=referral\",\"text\":\"Tired of writing endless social media content? Let Content Caddy generate it for you.\"}}\n\n"},{"result":{"nanos":39400,"startTime":1733775974564,"endTime":1733775974564,"millis":0.0394,"status":"passed"},"step":{"line":9,"prefix":"Then","index":2,"text":"status 200"}}],"executorName":"pool-2-thread-5","line":6,"name":"Get All users","description":"","durationMillis":1926.2552,"startTime":1733775971957,"failed":false,"refId":"[1:6]","endTime":1733775974564,"exampleIndex":-1},{"sectionIndex":1,"stepResults":[{"result":{"nanos":1091400,"startTime":1733775974615,"endTime":1733775974616,"millis":1.0914,"status":"passed"},"step":{"background":true,"line":4,"prefix":"*","index":0,"text":"url 'https:\/\/reqres.in'"},"stepLog":"15:26:14.607 karate.env system property was: null \n"},{"result":{"nanos":1005400,"startTime":1733775974617,"endTime":1733775974618,"millis":1.0054,"status":"passed"},"step":{"endLine":18,"line":12,"prefix":"*","docString":"{\n  \"name\": \"morpheus\",\n  \"job\": \"leader\"\n}","index":0,"text":"def create_user_request ="}},{"result":{"nanos":1189200,"startTime":1733775974618,"endTime":1733775974619,"millis":1.1892,"status":"passed"},"step":{"line":19,"prefix":"Given","index":1,"text":"path '\/api\/users'"}},{"result":{"nanos":3742700,"startTime":1733775974619,"endTime":1733775974623,"millis":3.7427,"status":"passed"},"step":{"line":20,"prefix":"And","index":2,"text":"request create_user_request"}},{"result":{"nanos":639895100,"startTime":1733775974624,"endTime":1733775975264,"millis":639.8951,"status":"passed"},"step":{"line":21,"prefix":"When","index":3,"text":"method post"},"stepLog":"15:26:14.631 request:\n1 > POST https:\/\/reqres.in\/api\/users\n1 > Content-Type: application\/json; charset=UTF-8\n1 > Content-Length: 34\n1 > Host: reqres.in\n1 > Connection: Keep-Alive\n1 > User-Agent: Apache-HttpClient\/4.5.14 (Java\/17.0.2)\n1 > Accept-Encoding: gzip,deflate\n{\"name\":\"morpheus\",\"job\":\"leader\"}\n\n15:26:15.258 response time in milliseconds: 624\n1 < 201\n1 < Date: Mon, 09 Dec 2024 20:26:14 GMT\n1 < Content-Type: application\/json; charset=utf-8\n1 < Content-Length: 84\n1 < Connection: keep-alive\n1 < Report-To: {\"group\":\"heroku-nel\",\"max_age\":3600,\"endpoints\":[{\"url\":\"https:\/\/nel.heroku.com\/reports?ts=1733775974&sid=c4c9725f-1ab0-44d8-820f-430df2718e11&s=a8hnZE5hTdU0HyFW6K7%2BKSndx1Oo%2FRVWgm9dDPkjJ2E%3D\"}]}\n1 < Reporting-Endpoints: heroku-nel=https:\/\/nel.heroku.com\/reports?ts=1733775974&sid=c4c9725f-1ab0-44d8-820f-430df2718e11&s=a8hnZE5hTdU0HyFW6K7%2BKSndx1Oo%2FRVWgm9dDPkjJ2E%3D\n1 < Nel: {\"report_to\":\"heroku-nel\",\"max_age\":3600,\"success_fraction\":0.005,\"failure_fraction\":0.05,\"response_headers\":[\"Via\"]}\n1 < X-Powered-By: Express\n1 < Access-Control-Allow-Origin: *\n1 < Etag: W\/\"54-Z5jt2AJUDHCqr5iNe9a0E2jKzrA\"\n1 < Via: 1.1 vegur\n1 < CF-Cache-Status: DYNAMIC\n1 < Server: cloudflare\n1 < CF-RAY: 8ef7baa0d8e38bff-MIA\n1 < server-timing: cfL4;desc=\"?proto=TCP&rtt=88528&min_rtt=86683&rtt_var=36197&sent=3&recv=5&lost=0&retrans=0&sent_bytes=187&recv_bytes=1266&delivery_rate=14194&cwnd=250&unsent_bytes=0&cid=c80b933171b54f05&ts=447&x=0\"\n{\"name\":\"morpheus\",\"job\":\"leader\",\"id\":\"488\",\"createdAt\":\"2024-12-09T20:26:14.706Z\"}\n\n"},{"result":{"nanos":42100,"startTime":1733775975265,"endTime":1733775975265,"millis":0.0421,"status":"passed"},"step":{"line":22,"prefix":"Then","index":4,"text":"status 201"}},{"result":{"nanos":2793600,"startTime":1733775975266,"endTime":1733775975269,"millis":2.7936,"status":"passed"},"step":{"line":24,"prefix":"*","index":5,"text":"def expectedName = create_user_request.name"}},{"result":{"nanos":2018900,"startTime":1733775975269,"endTime":1733775975271,"millis":2.0189,"status":"passed"},"step":{"line":25,"prefix":"*","index":6,"text":"def expectedJob = create_user_request.job"}},{"result":{"nanos":1881900,"startTime":1733775975271,"endTime":1733775975273,"millis":1.8819,"status":"passed"},"step":{"line":27,"prefix":"And","index":7,"text":"match response.name == expectedName"}},{"result":{"nanos":2201100,"startTime":1733775975272,"endTime":1733775975274,"millis":2.2011,"status":"passed"},"step":{"line":28,"prefix":"And","index":8,"text":"match response.job == expectedJob"}}],"executorName":"pool-2-thread-5","line":11,"name":"Create a user","description":"","durationMillis":655.8614,"startTime":1733775974598,"failed":false,"refId":"[2:11]","endTime":1733775975275,"exampleIndex":-1}],"callDepth":0,"name":"Users","description":"","resultDate":"2024-12-09 03:26:17 p. m.","durationMillis":2582.1166,"passedCount":2}